Index
…
df

## # A tibble: 130 × 10
##    Category       language count  supply group   lep     pgr   teen  elder   pov
##    <chr>          <chr>    <int>   <dbl> <chr> <dbl>   <dbl>  <dbl>  <dbl> <dbl>
##  1 Educational s… Spanish      3 2.31e-2 Span… 0.165  0.296  0.0545 0.0932 0.292
##  2 Educational s… Chinese      0 7.68e-5 Asian 0.341 -0.102  0.123  0.110  0.204
##  3 Educational s… Tagalog      0 7.68e-5 Asian 0.102  1.13   0.123  0.110  0.204
##  4 Educational s… Portugu…     0 7.68e-5 Indo… 0.154  0.475  0.0884 0.0888 0.243
##  5 Educational s… Korean       0 7.68e-5 Asian 0.467 -0.0651 0.123  0.110  0.204
##  6 Educational s… German       0 7.68e-5 Indo… 0.164  0.721  0.0884 0.0888 0.243
##  7 Educational s… Haitian      1 7.76e-3 Indo… 0.228  0.210  0.0884 0.0888 0.243
##  8 Educational s… Vietnam…     0 7.68e-5 Asian 0.201 -0.491  0.123  0.110  0.204
##  9 Educational s… French       0 7.68e-5 Indo… 0.228  0.210  0.0884 0.0888 0.243
## 10 Educational s… Hindi        0 7.68e-5 Indo… 0.154  0.475  0.0884 0.0888 0.243
## # ℹ 120 more rows
…
Arrangment & Final Result

top <- df %>%
  arrange(desc(index))
top

## # A tibble: 130 × 6
##    Category                          language   supply demand index  showi
##    <chr>                             <chr>       <dbl>  <dbl> <dbl>  <dbl>
##  1 Health care and social assistance Spanish    0.438   1.06   9.80 -1.14 
##  2 Other services, except government Spanish    0.0539  0.859  5.22 -0.822
##  3 Government                        Spanish    0.0539  0.949  4.99 -0.801
##  4 Health care and social assistance Tagalog    0.0462  1.09   4.36 -0.733
##  5 Health care and social assistance French     0.0462  1.16   4.23 -0.718
##  6 Health care and social assistance Chinese    0.0462  1.31   3.98 -0.687
##  7 Health care and social assistance Portuguese 0.0385  1.10   3.96 -0.685
##  8 Finance and insurance             Spanish    0.0308  0.902  3.92 -0.680
##  9 Health care and social assistance Haitian    0.0385  1.17   3.84 -0.670
## 10 Health care and social assistance Russian    0.0308  1.08   3.56 -0.633
## # ℹ 120 more rows

last <- df %>%
  arrange(index)
last

## # A tibble: 130 × 6
##    Category                       language      supply demand  index showi
##    <chr>                          <chr>          <dbl>  <dbl>  <dbl> <dbl>
##  1 Educational services           Korean     0.0000768   1.33 0.0154  2.08
##  2 Transportation and warehousing Korean     0.0000768   1.29 0.0159  2.06
##  3 Utilities                      Korean     0.0000768   1.29 0.0159  2.06
##  4 Educational services           Chinese    0.0000768   1.28 0.016   2.06
##  5 Transportation and warehousing Chinese    0.0000768   1.23 0.0166  2.04
##  6 Educational services           Vietnamese 0.0000768   1.23 0.0167  2.04
##  7 Utilities                      Vietnamese 0.0000768   1.19 0.0172  2.02
##  8 Transportation and warehousing Vietnamese 0.0000768   1.19 0.0173  2.02
##  9 Finance and insurance          Korean     0.0000768   1.18 0.0174  2.02
## 10 Educational services           French     0.0000768   1.13 0.0181  2.00
## # ℹ 120 more rows
…
